[gd_scene load_steps=2 format=2]

[ext_resource path="res://Individual Sprites/Taiga/Tileset.png" type="Texture" id=1]

[node name="Taiga" type="Sprite" index="0"]

position = Vector2( 128, 64 )
texture = ExtResource( 1 )


