[gd_scene load_steps=10 format=2]

[ext_resource path="res://World.gd" type="Script" id=1]
[ext_resource path="res://Player.tscn" type="PackedScene" id=2]
[ext_resource path="res://dirtTiles.tres" type="TileSet" id=3]
[ext_resource path="res://WorldComplete.gd" type="Script" id=4]
[ext_resource path="res://icon.png" type="Texture" id=5]
[ext_resource path="res://interface/GUI.tscn" type="PackedScene" id=6]
[ext_resource path="res://PixelArtPlatformer.tres" type="TileSet" id=7]
[ext_resource path="res://16bitdungeon.tres" type="TileSet" id=8]

[sub_resource type="RectangleShape2D" id=1]

custom_solver_bias = 0.0
extents = Vector2( 32, 32 )

[node name="World" type="Node"]

script = ExtResource( 1 )
__meta__ = {
"_edit_vertical_guides_": [ 636.171 ]
}

[node name="Player" parent="." index="0" instance=ExtResource( 2 )]

[node name="TileMap" type="TileMap" parent="." index="1"]

mode = 0
tile_set = ExtResource( 3 )
cell_size = Vector2( 32, 32 )
cell_quadrant_size = 16
cell_custom_transform = Transform2D( 1, 0, 0, 1, 0, 0 )
cell_half_offset = 2
cell_tile_origin = 0
cell_y_sort = false
cell_clip_uv = false
collision_use_kinematic = false
collision_friction = 1.0
collision_bounce = 0.0
collision_layer = 1
collision_mask = 1
occluder_light_mask = 1
format = 1
tile_data = PoolIntArray( -851965, 0, 327682, -786429, 0, 262144, -720893, 0, 262144, -720889, 0, 327682, -720848, 0, 327682, -655357, 0, 262144, -655353, 0, 262144, -655312, 0, 262144, -589821, 0, 262144, -589817, 0, 262144, -589776, 0, 262144, -524285, 0, 262144, -524281, 0, 262144, -524240, 0, 262144, -458749, 0, 262144, -458745, 0, 262144, -458704, 0, 262144, -458700, 0, 327682, -393213, 0, 262144, -393209, 0, 262144, -393168, 0, 262144, -393164, 0, 262144, -327677, 0, 262144, -327673, 0, 262144, -327632, 0, 262144, -327628, 0, 262144, -262141, 0, 262144, -262137, 0, 262144, -262096, 0, 262144, -262092, 0, 262144, -196605, 0, 262144, -196601, 0, 262144, -196560, 0, 262144, -196556, 0, 262144, -196531, 0, 327682, -131069, 0, 262144, -131065, 0, 262144, -131024, 0, 262144, -131020, 0, 262144, -130995, 0, 262144, -65533, 0, 262144, -65529, 0, 262144, -65488, 0, 262144, -65484, 0, 262144, -65459, 0, 262144, 3, 0, 262144, 7, 0, 262144, 48, 0, 262144, 52, 0, 262144, 77, 0, 262144, 65539, 0, 262144, 65543, 0, 262144, 65564, 0, 327683, 65565, 0, 262145, 65566, 0, 262145, 65567, 0, 262145, 65568, 0, 327685, 65584, 0, 262144, 65588, 0, 262144, 65613, 0, 262144, 131075, 0, 262144, 131079, 0, 262144, 131120, 0, 262144, 131124, 0, 262144, 131149, 0, 262144, 196611, 0, 262144, 196615, 0, 262144, 196619, 0, 327682, 196631, 0, 327683, 196632, 0, 262145, 196633, 0, 327685, 196656, 0, 327684, 196660, 0, 131073, 196661, 0, 262148, 196685, 0, 262144, 262147, 0, 327684, 262151, 0, 327684, 262154, 0, 262146, 262155, 0, 3, 262156, 0, 262149, 262196, 0, 131074, 262197, 0, 2, 262198, 0, 262148, 262221, 0, 262144, 327689, 0, 262146, 327690, 0, 1, 327691, 0, 327687, 327692, 0, 2, 327693, 0, 262148, 327699, 0, 327683, 327700, 0, 327685, 327732, 0, 131074, 327733, 0, 327687, 327734, 0, 2, 327735, 0, 131076, 327736, 0, 262148, 327757, 0, 262144, 393224, 0, 262146, 393225, 0, 1, 393226, 0, 327687, 393227, 0, 327687, 393228, 0, 327687, 393229, 0, 2, 393230, 0, 262148, 393268, 0, 131074, 393269, 0, 327687, 393270, 0, 327687, 393271, 0, 327687, 393272, 0, 2, 393273, 0, 131076, 393274, 0, 131076, 393275, 0, 131076, 393276, 0, 131076, 393277, 0, 131076, 393278, 0, 131076, 393279, 0, 262148, 393293, 0, 262144, 458752, 0, 327683, 458753, 0, 262145, 458754, 0, 262145, 458755, 0, 262145, 458756, 0, 262145, 458757, 0, 262145, 458758, 0, 262145, 458759, 0, 262145, 458760, 0, 196613, 458761, 0, 196612, 458762, 0, 196612, 458763, 0, 196612, 458764, 0, 196612, 458765, 0, 196612, 458766, 0, 196614, 458767, 0, 262145, 458768, 0, 262145, 458769, 0, 262145, 458770, 0, 262145, 458771, 0, 262145, 458772, 0, 262145, 458773, 0, 262145, 458774, 0, 262145, 458775, 0, 262145, 458776, 0, 262145, 458777, 0, 262145, 458778, 0, 262145, 458779, 0, 262145, 458780, 0, 262145, 458781, 0, 262145, 458782, 0, 262145, 458783, 0, 262145, 458784, 0, 262145, 458785, 0, 262145, 458786, 0, 262145, 458787, 0, 327685, 458794, 0, 327683, 458795, 0, 262145, 458796, 0, 262145, 458797, 0, 262145, 458798, 0, 262145, 458799, 0, 262145, 458800, 0, 262145, 458801, 0, 262145, 458802, 0, 262145, 458803, 0, 262145, 458804, 0, 196613, 458805, 0, 196612, 458806, 0, 196612, 458807, 0, 196612, 458808, 0, 196612, 458809, 0, 196612, 458810, 0, 196612, 458811, 0, 196612, 458812, 0, 196612, 458813, 0, 196612, 458814, 0, 196612, 458815, 0, 196614, 458816, 0, 262145, 458817, 0, 262145, 458818, 0, 262145, 458819, 0, 327685, 458829, 0, 262144, 524365, 0, 262144, 589898, 0, 327682, 589901, 0, 262144, 655396, 0, 327683, 655397, 0, 327685, 655434, 0, 262144, 655437, 0, 262144, 720970, 0, 262144, 720973, 0, 262144, 786506, 0, 262144, 786509, 0, 262144, 852042, 0, 262144, 852045, 0, 262144, 917578, 0, 262144, 917581, 0, 262144, 983079, 0, 327683, 983080, 0, 327685, 983114, 0, 262144, 983117, 0, 262144, 1048650, 0, 262144, 1048653, 0, 262144, 1114186, 0, 262144, 1114189, 0, 262144, 1179722, 0, 262144, 1179725, 0, 262144, 1245220, 0, 327683, 1245221, 0, 327685, 1245258, 0, 262144, 1245261, 0, 262144, 1310794, 0, 262144, 1310797, 0, 262144, 1376330, 0, 262144, 1376333, 0, 262144, 1441866, 0, 262144, 1441869, 0, 262144, 1507402, 0, 262144, 1507405, 0, 262144, 1572903, 0, 327683, 1572904, 0, 327685, 1572938, 0, 262144, 1572941, 0, 262144, 1638418, 0, 327686, 1638474, 0, 262144, 1638477, 0, 262144, 1704010, 0, 262144, 1704013, 0, 262144, 1769546, 0, 262144, 1769549, 0, 262144, 1835082, 0, 262144, 1835085, 0, 262144, 1900554, 0, 327683, 1900555, 0, 262145, 1900556, 0, 327685, 1900567, 0, 327686, 1900580, 0, 327683, 1900581, 0, 327685, 1900618, 0, 262144, 1900621, 0, 262144, 1966154, 0, 262144, 1966157, 0, 262144, 2031690, 0, 262144, 2031693, 0, 262144, 2097226, 0, 262144, 2097229, 0, 262144, 2162716, 0, 327686, 2162762, 0, 262144, 2162765, 0, 262144, 2228298, 0, 262144, 2228301, 0, 262144, 2293799, 0, 327683, 2293800, 0, 327685, 2293834, 0, 262144, 2293837, 0, 262144, 2359370, 0, 262144, 2359373, 0, 262144, 2424863, 0, 327683, 2424864, 0, 262145, 2424865, 0, 327685, 2424906, 0, 327684, 2424909, 0, 262144, 2490411, 0, 327683, 2490412, 0, 327685, 2490445, 0, 262144, 2555981, 0, 262144, 2621517, 0, 262144, 2687053, 0, 262144, 2752551, 0, 327683, 2752552, 0, 262145, 2752553, 0, 262145, 2752554, 0, 262145, 2752555, 0, 262145, 2752556, 0, 262145, 2752557, 0, 262145, 2752558, 0, 262145, 2752559, 0, 262145, 2752560, 0, 262145, 2752561, 0, 262145, 2752562, 0, 262145, 2752563, 0, 262145, 2752564, 0, 262145, 2752565, 0, 262145, 2752566, 0, 262145, 2752567, 0, 262145, 2752568, 0, 262145, 2752569, 0, 262145, 2752570, 0, 262145, 2752571, 0, 262145, 2752572, 0, 262145, 2752573, 0, 262145, 2752574, 0, 262145, 2752575, 0, 262145, 2752576, 0, 262145, 2752577, 0, 262145, 2752578, 0, 262145, 2752579, 0, 262145, 2752580, 0, 262145, 2752581, 0, 262145, 2752582, 0, 262145, 2752583, 0, 262145, 2752584, 0, 262145, 2752585, 0, 262145, 2752586, 0, 262145, 2752587, 0, 262145, 2752588, 0, 262145, 2752589, 0, 262151 )
_sections_unfolded = [ "Cell" ]
__meta__ = {
"_edit_lock_": true
}

[node name="Enemy" type="KinematicBody2D" parent="." index="2"]

input_pickable = false
collision_layer = 1
collision_mask = 1
collision/safe_margin = 0.08

[node name="WorldComplete" type="Area2D" parent="." index="3"]

visible = false
position = Vector2( 352, 912 )
scale = Vector2( 0.5, 0.5 )
input_pickable = true
gravity_vec = Vector2( 0, 1 )
gravity = 98.0
linear_damp = 0.1
angular_damp = 1.0
audio_bus_override = false
audio_bus_name = "Master"
script = ExtResource( 4 )
_sections_unfolded = [ "Transform" ]
__meta__ = {
"_edit_group_": true
}
next_world = "res://World2.tscn"

[node name="Sprite" type="Sprite" parent="WorldComplete" index="0"]

texture = ExtResource( 5 )
_sections_unfolded = [ "Transform" ]

[node name="CollisionShape2D" type="CollisionShape2D" parent="WorldComplete" index="1"]

shape = SubResource( 1 )

[node name="GUI" parent="." index="4" instance=ExtResource( 6 )]

[node name="TileMap2" type="TileMap" parent="." index="5"]

visible = false
mode = 0
tile_set = ExtResource( 7 )
cell_size = Vector2( 16, 16 )
cell_quadrant_size = 16
cell_custom_transform = Transform2D( 1, 0, 0, 1, 0, 0 )
cell_half_offset = 2
cell_tile_origin = 0
cell_y_sort = false
cell_clip_uv = false
collision_use_kinematic = false
collision_friction = 1.0
collision_bounce = 0.0
collision_layer = 1
collision_mask = 1
occluder_light_mask = 1
format = 1
tile_data = PoolIntArray( -1703931, 0, 0, -1703930, 1, 0, -1703929, 2, 0, -1638395, 8, 0, -1638394, 536870921, 0, -1638393, 1610612744, 0, -1572859, 8, 0, -1572858, 536870921, 0, -1572857, 1610612744, 0, -1507323, 8, 0, -1507322, 536870921, 0, -1507321, 1610612744, 0, -1441787, 8, 0, -1441786, 536870921, 0, -1441785, 1610612744, 0, -1441778, 0, 0, -1441777, 1, 0, -1441776, 2, 0, -1376251, 8, 0, -1376250, 536870921, 0, -1376249, 1610612744, 0, -1376242, 8, 0, -1376241, 9, 0, -1376240, 1610612744, 0, -1310715, 8, 0, -1310714, 536870921, 0, -1310713, 1610612744, 0, -1310706, 8, 0, -1310705, 9, 0, -1310704, 1610612744, 0, -1245179, 8, 0, -1245178, 536870921, 0, -1245177, 1610612744, 0, -1245170, 8, 0, -1245169, 9, 0, -1245168, 1610612744, 0, -1179643, 8, 0, -1179642, 536870921, 0, -1179641, 1610612744, 0, -1179634, 8, 0, -1179633, 9, 0, -1179632, 1610612744, 0, -1114107, 8, 0, -1114106, 536870921, 0, -1114105, 1610612744, 0, -1114098, 8, 0, -1114097, 9, 0, -1114096, 1610612744, 0, -1048571, 8, 0, -1048570, 536870921, 0, -1048569, 1610612744, 0, -1048562, 8, 0, -1048561, 9, 0, -1048560, 1610612744, 0, -983035, 8, 0, -983034, 536870921, 0, -983033, 1610612744, 0, -983026, 8, 0, -983025, 9, 0, -983024, 1610612744, 0, -917499, 8, 0, -917498, 536870921, 0, -917497, 1610612744, 0, -917490, 8, 0, -917489, 9, 0, -917488, 1610612744, 0, -851963, 8, 0, -851962, 536870921, 0, -851961, 1610612744, 0, -851954, 8, 0, -851953, 9, 0, -851952, 1610612744, 0, -786427, 8, 0, -786426, 536870921, 0, -786425, 1610612744, 0, -786418, 8, 0, -786417, 9, 0, -786416, 1610612744, 0, -720891, 8, 0, -720890, 536870921, 0, -720889, 1610612744, 0, -720882, 8, 0, -720881, 9, 0, -720880, 1610612744, 0, -655355, 8, 0, -655354, 536870921, 0, -655353, 1610612744, 0, -655346, 8, 0, -655345, 9, 0, -655344, 1610612744, 0, -589819, 8, 0, -589818, 536870921, 0, -589817, 1610612744, 0, -589810, 8, 0, -589809, 9, 0, -589808, 1610612744, 0, -524283, 8, 0, -524282, 536870921, 0, -524281, 1610612744, 0, -524274, 8, 0, -524273, 9, 0, -524272, 1610612744, 0, -458747, 8, 0, -458746, 536870921, 0, -458745, 1610612744, 0, -458738, 8, 0, -458737, 9, 0, -458736, 1610612744, 0, -393211, 8, 0, -393210, 536870921, 0, -393209, 1610612744, 0, -393202, 8, 0, -393201, 9, 0, -393200, 1610612744, 0, -327675, 8, 0, -327674, 536870921, 0, -327673, 1610612744, 0, -327666, 8, 0, -327665, 9, 0, -327664, 1610612744, 0, -262139, 8, 0, -262138, 536870921, 0, -262137, 1610612744, 0, -262130, 8, 0, -262129, 9, 0, -262128, 1610612744, 0, -196603, 8, 0, -196602, 536870921, 0, -196601, 1610612744, 0, -196594, 8, 0, -196593, 9, 0, -196592, 1610612744, 0, -131067, 8, 0, -131066, 536870921, 0, -131065, 1610612744, 0, -131058, 8, 0, -131057, 9, 0, -131056, 1610612744, 0, -65531, 8, 0, -65530, 536870921, 0, -65529, 1610612744, 0, -65522, 8, 0, -65521, 9, 0, -65520, 1610612744, 0, 5, 8, 0, 6, 536870921, 0, 7, 1610612744, 0, 14, 8, 0, 15, 9, 0, 16, 1610612744, 0, 65541, 8, 0, 65542, 536870921, 0, 65543, 1610612744, 0, 65550, 8, 0, 65551, 9, 0, 65552, 1610612744, 0, 131077, 8, 0, 131078, 536870921, 0, 131079, 1610612744, 0, 131086, 8, 0, 131087, 9, 0, 131088, 1610612744, 0, 196613, 8, 0, 196614, 536870921, 0, 196615, 1610612744, 0, 196622, 8, 0, 196623, 9, 0, 196624, 1610612744, 0, 262149, 8, 0, 262150, 536870921, 0, 262151, 1610612744, 0, 262158, 8, 0, 262159, 9, 0, 262160, 1610612744, 0, 327685, 8, 0, 327686, 536870921, 0, 327687, 1610612744, 0, 327694, 8, 0, 327695, 9, 0, 327696, 1610612744, 0, 393221, 8, 0, 393222, 536870921, 0, 393223, 1610612744, 0, 393230, 8, 0, 393231, 9, 0, 393232, 1610612744, 0, 393238, 0, 0, 393239, 2, 0, 458757, 8, 0, 458758, 536870921, 0, 458759, 1610612744, 0, 458766, 8, 0, 458767, 9, 0, 458768, 1610612744, 0, 458774, 8, 0, 458775, 536870920, 0, 524293, 8, 0, 524294, 536870921, 0, 524295, 1610612744, 0, 524302, 8, 0, 524303, 9, 0, 524304, 1610612744, 0, 524308, 0, 0, 524309, 1, 0, 524310, 6, 0, 524311, 536870918, 0, 524312, 1, 0, 524313, 2, 0, 589829, 17, 0, 589830, 18, 0, 589831, 536870929, 0, 589838, 17, 0, 589839, 18, 0, 589840, 536870929, 0, 589844, 8, 0, 589845, 9, 0, 589846, 9, 0, 589847, 9, 0, 589848, 9, 0, 589849, 536870920, 0, 655378, 0, 0, 655379, 1, 0, 655380, 6, 0, 655381, 9, 0, 655382, 9, 0, 655383, 9, 0, 655384, 9, 0, 655385, 536870918, 0, 655386, 1, 0, 655387, 2, 0, 720914, 8, 0, 720915, 9, 0, 720916, 9, 0, 720917, 9, 0, 720918, 9, 0, 720919, 9, 0, 720920, 9, 0, 720921, 9, 0, 720922, 9, 0, 720923, 536870920, 0, 786448, 0, 0, 786449, 1, 0, 786450, 6, 0, 786451, 9, 0, 786452, 9, 0, 786453, 9, 0, 786454, 9, 0, 786455, 9, 0, 786456, 9, 0, 786457, 9, 0, 786458, 9, 0, 786459, 536870918, 0, 786460, 1, 0, 786461, 2, 0, 851984, 8, 0, 851985, 9, 0, 851986, 9, 0, 851987, 9, 0, 851988, 9, 0, 851989, 9, 0, 851990, 9, 0, 851991, 9, 0, 851992, 9, 0, 851993, 9, 0, 851994, 9, 0, 851995, 9, 0, 851996, 9, 0, 851997, 536870920, 0, 852014, 39, 0, 852024, 41, 0, 917504, 0, 0, 917505, 1, 0, 917506, 1, 0, 917507, 1, 0, 917508, 1, 0, 917509, 1, 0, 917510, 1, 0, 917511, 1, 0, 917512, 1, 0, 917513, 1, 0, 917514, 1, 0, 917515, 1, 0, 917516, 1, 0, 917517, 1, 0, 917518, 1, 0, 917519, 1, 0, 917520, 6, 0, 917521, 9, 0, 917522, 9, 0, 917523, 9, 0, 917524, 9, 0, 917525, 9, 0, 917526, 9, 0, 917527, 9, 0, 917528, 9, 0, 917529, 9, 0, 917530, 9, 0, 917531, 9, 0, 917532, 9, 0, 917533, 536870918, 0, 917534, 1, 0, 917535, 1, 0, 917536, 1, 0, 917537, 1, 0, 917538, 1, 0, 917539, 1, 0, 917540, 1, 0, 917541, 1, 0, 917542, 1, 0, 917543, 1, 0, 917544, 1, 0, 917545, 1, 0, 917546, 1, 0, 917547, 1, 0, 917548, 1, 0, 917549, 1, 0, 917550, 40, 0, 917551, 40, 0, 917552, 40, 0, 917553, 40, 0, 917554, 40, 0, 917555, 40, 0, 917556, 40, 0, 917557, 40, 0, 917558, 40, 0, 917559, 40, 0, 917560, 40, 0, 917561, 1, 0, 917562, 1, 0, 917563, 1, 0, 917564, 1, 0, 917565, 1, 0, 917566, 1, 0, 917567, 1, 0, 917568, 1, 0, 917569, 1, 0, 917570, 1, 0, 917571, 1, 0, 917572, 1, 0, 917573, 1, 0, 917574, 1, 0, 917575, 2, 0, 917588, 0, 0, 917589, 1, 0, 917590, 1, 0, 917591, 1, 0, 917592, 1, 0, 917593, 1, 0, 917594, 1, 0, 917595, 1, 0, 917596, 1, 0, 917597, 1, 0, 917598, 1, 0, 917599, 1, 0, 917600, 1, 0, 917601, 1, 0, 917602, 1, 0, 917603, 1, 0, 917604, 1, 0, 917605, 1, 0, 917606, 1, 0, 917607, 1, 0, 917608, 1, 0, 917609, 6, 0, 983040, 8, 0, 983041, 9, 0, 983042, 9, 0, 983043, 9, 0, 983044, 9, 0, 983045, 9, 0, 983046, 9, 0, 983047, 9, 0, 983048, 9, 0, 983049, 9, 0, 983050, 9, 0, 983051, 9, 0, 983052, 9, 0, 983053, 9, 0, 983054, 9, 0, 983055, 9, 0, 983056, 9, 0, 983057, 9, 0, 983058, 9, 0, 983059, 9, 0, 983060, 9, 0, 983061, 9, 0, 983062, 9, 0, 983063, 9, 0, 983064, 9, 0, 983065, 9, 0, 983066, 9, 0, 983067, 9, 0, 983068, 9, 0, 983069, 9, 0, 983070, 9, 0, 983071, 9, 0, 983072, 9, 0, 983073, 9, 0, 983074, 9, 0, 983075, 9, 0, 983076, 9, 0, 983077, 9, 0, 983078, 9, 0, 983079, 9, 0, 983080, 9, 0, 983081, 9, 0, 983082, 9, 0, 983083, 9, 0, 983084, 9, 0, 983085, 1610612744, 0, 983097, 8, 0, 983098, 9, 0, 983099, 9, 0, 983100, 9, 0, 983101, 9, 0, 983102, 9, 0, 983103, 9, 0, 983104, 9, 0, 983105, 9, 0, 983106, 9, 0, 983107, 9, 0, 983108, 9, 0, 983109, 9, 0, 983110, 9, 0, 983111, 536870920, 0, 1048576, 17, 0, 1048577, 18, 0, 1048578, 18, 0, 1048579, 18, 0, 1048580, 18, 0, 1048581, 18, 0, 1048582, 18, 0, 1048583, 18, 0, 1048584, 18, 0, 1048585, 18, 0, 1048586, 18, 0, 1048587, 18, 0, 1048588, 18, 0, 1048589, 18, 0, 1048590, 18, 0, 1048591, 18, 0, 1048592, 18, 0, 1048593, 18, 0, 1048594, 18, 0, 1048595, 18, 0, 1048596, 18, 0, 1048597, 18, 0, 1048598, 18, 0, 1048599, 18, 0, 1048600, 18, 0, 1048601, 18, 0, 1048602, 18, 0, 1048603, 18, 0, 1048604, 18, 0, 1048605, 18, 0, 1048606, 18, 0, 1048607, 18, 0, 1048608, 18, 0, 1048609, 18, 0, 1048610, 18, 0, 1048611, 18, 0, 1048612, 18, 0, 1048613, 18, 0, 1048614, 18, 0, 1048615, 18, 0, 1048616, 18, 0, 1048617, 18, 0, 1048618, 18, 0, 1048619, 5, 0, 1048620, 9, 0, 1048621, 1610612744, 0, 1048633, 8, 0, 1048634, 9, 0, 1048635, 4, 0, 1048636, 18, 0, 1048637, 18, 0, 1048638, 18, 0, 1048639, 18, 0, 1048640, 18, 0, 1048641, 18, 0, 1048642, 18, 0, 1048643, 18, 0, 1048644, 18, 0, 1048645, 18, 0, 1048646, 18, 0, 1048647, 536870929, 0, 1114155, 536870922, 0, 1114156, 9, 0, 1114157, 1610612744, 0, 1114169, 8, 0, 1114170, 9, 0, 1114171, 10, 0, 1179691, 536870922, 0, 1179692, 9, 0, 1179693, 1610612744, 0, 1179705, 8, 0, 1179706, 9, 0, 1179707, 10, 0, 1245227, 536870922, 0, 1245228, 9, 0, 1245229, 1610612744, 0, 1245230, 42, 0, 1245231, 42, 0, 1245232, 42, 0, 1245233, 42, 0, 1245234, 42, 0, 1245235, 42, 0, 1245236, 42, 0, 1245237, 42, 0, 1245238, 42, 0, 1245239, 42, 0, 1245240, 42, 0, 1245241, 8, 0, 1245242, 9, 0, 1245243, 10, 0, 1310763, 536870922, 0, 1310764, 9, 0, 1310765, 536870918, 0, 1310766, 536870913, 0, 1310767, 536870913, 0, 1310768, 536870913, 0, 1310769, 536870913, 0, 1310770, 536870913, 0, 1310771, 536870913, 0, 1310772, 536870913, 0, 1310773, 536870913, 0, 1310774, 536870913, 0, 1310775, 536870913, 0, 1310776, 536870913, 0, 1310777, 6, 0, 1310778, 9, 0, 1310779, 10, 0, 1376299, 536870922, 0, 1376300, 9, 0, 1376301, 9, 0, 1376302, 9, 0, 1376303, 9, 0, 1376304, 9, 0, 1376305, 9, 0, 1376306, 9, 0, 1376307, 9, 0, 1376308, 9, 0, 1376309, 9, 0, 1376310, 9, 0, 1376311, 9, 0, 1376312, 9, 0, 1376313, 9, 0, 1376314, 9, 0, 1376315, 10, 0, 1441835, 536870931, 0, 1441836, 18, 0, 1441837, 18, 0, 1441838, 18, 0, 1441839, 18, 0, 1441840, 18, 0, 1441841, 18, 0, 1441842, 18, 0, 1441843, 18, 0, 1441844, 18, 0, 1441845, 18, 0, 1441846, 18, 0, 1441847, 18, 0, 1441848, 18, 0, 1441849, 18, 0, 1441850, 18, 0, 1441851, 19, 0 )
_sections_unfolded = [ "Cell" ]

[node name="TileMap3" type="TileMap" parent="." index="6"]

visible = false
mode = 0
tile_set = ExtResource( 8 )
cell_size = Vector2( 16, 16 )
cell_quadrant_size = 16
cell_custom_transform = Transform2D( 1, 0, 0, 1, 0, 0 )
cell_half_offset = 2
cell_tile_origin = 0
cell_y_sort = false
cell_clip_uv = false
collision_use_kinematic = false
collision_friction = 1.0
collision_bounce = 0.0
collision_layer = 1
collision_mask = 1
occluder_light_mask = 1
format = 1
tile_data = PoolIntArray( -1703930, 1, 0, -1703929, 3, 0, -1638394, 9, 0, -1638393, 11, 0, -1572858, 9, 0, -1572857, 11, 0, -1507322, 9, 0, -1507321, 11, 0, -1441786, 9, 0, -1441785, 11, 0, -1441778, 1, 0, -1441777, 3, 0, -1441696, 1, 0, -1441695, 3, 0, -1376250, 9, 0, -1376249, 11, 0, -1376242, 9, 0, -1376241, 11, 0, -1376160, 9, 0, -1376159, 11, 0, -1310714, 9, 0, -1310713, 11, 0, -1310706, 9, 0, -1310705, 11, 0, -1310624, 9, 0, -1310623, 11, 0, -1245178, 9, 0, -1245177, 11, 0, -1245170, 9, 0, -1245169, 11, 0, -1245088, 9, 0, -1245087, 11, 0, -1179642, 9, 0, -1179641, 11, 0, -1179634, 9, 0, -1179633, 11, 0, -1179552, 9, 0, -1179551, 11, 0, -1114106, 9, 0, -1114105, 11, 0, -1114098, 9, 0, -1114097, 11, 0, -1114016, 9, 0, -1114015, 11, 0, -1048570, 9, 0, -1048569, 11, 0, -1048562, 9, 0, -1048561, 11, 0, -1048480, 9, 0, -1048479, 11, 0, -983034, 9, 0, -983033, 11, 0, -983026, 9, 0, -983025, 11, 0, -982944, 9, 0, -982943, 11, 0, -917498, 9, 0, -917497, 11, 0, -917490, 9, 0, -917489, 11, 0, -917408, 9, 0, -917407, 11, 0, -917400, 1, 0, -917399, 3, 0, -851962, 9, 0, -851961, 11, 0, -851954, 9, 0, -851953, 11, 0, -851872, 9, 0, -851871, 11, 0, -851864, 9, 0, -851863, 11, 0, -786426, 9, 0, -786425, 11, 0, -786418, 9, 0, -786417, 11, 0, -786336, 9, 0, -786335, 11, 0, -786328, 9, 0, -786327, 11, 0, -720890, 9, 0, -720889, 11, 0, -720882, 9, 0, -720881, 11, 0, -720800, 9, 0, -720799, 11, 0, -720792, 9, 0, -720791, 11, 0, -655354, 9, 0, -655353, 11, 0, -655346, 9, 0, -655345, 11, 0, -655264, 9, 0, -655263, 11, 0, -655256, 9, 0, -655255, 11, 0, -589818, 9, 0, -589817, 11, 0, -589810, 9, 0, -589809, 11, 0, -589728, 9, 0, -589727, 11, 0, -589720, 9, 0, -589719, 11, 0, -524282, 9, 0, -524281, 11, 0, -524274, 9, 0, -524273, 11, 0, -524192, 9, 0, -524191, 11, 0, -524184, 9, 0, -524183, 11, 0, -458746, 9, 0, -458745, 11, 0, -458738, 9, 0, -458737, 11, 0, -458656, 9, 0, -458655, 11, 0, -458648, 9, 0, -458647, 11, 0, -393210, 9, 0, -393209, 11, 0, -393202, 9, 0, -393201, 11, 0, -393120, 9, 0, -393119, 11, 0, -393112, 9, 0, -393111, 11, 0, -327674, 9, 0, -327673, 11, 0, -327666, 9, 0, -327665, 11, 0, -327584, 9, 0, -327583, 11, 0, -327576, 9, 0, -327575, 11, 0, -262138, 9, 0, -262137, 11, 0, -262130, 9, 0, -262129, 11, 0, -262048, 9, 0, -262047, 11, 0, -262040, 9, 0, -262039, 11, 0, -196602, 9, 0, -196601, 11, 0, -196594, 9, 0, -196593, 11, 0, -196512, 9, 0, -196511, 11, 0, -196504, 9, 0, -196503, 11, 0, -131066, 9, 0, -131065, 11, 0, -131058, 9, 0, -131057, 11, 0, -130976, 9, 0, -130975, 11, 0, -130968, 9, 0, -130967, 11, 0, -65530, 9, 0, -65529, 11, 0, -65522, 9, 0, -65521, 11, 0, -65440, 9, 0, -65439, 11, 0, -65432, 9, 0, -65431, 11, 0, 6, 9, 0, 7, 11, 0, 14, 9, 0, 15, 11, 0, 63, 29, 0, 96, 9, 0, 97, 11, 0, 104, 9, 0, 105, 11, 0, 65542, 9, 0, 65543, 11, 0, 65550, 9, 0, 65551, 11, 0, 65594, 35, 0, 65599, 36, 0, 65632, 9, 0, 65633, 11, 0, 65640, 9, 0, 65641, 11, 0, 131078, 9, 0, 131079, 11, 0, 131086, 9, 0, 131087, 11, 0, 131128, 1, 0, 131129, 2, 0, 131130, 2, 0, 131131, 2, 0, 131132, 2, 0, 131133, 2, 0, 131134, 2, 0, 131135, 2, 0, 131136, 2, 0, 131137, 3, 0, 131168, 9, 0, 131169, 11, 0, 131176, 9, 0, 131177, 11, 0, 196614, 9, 0, 196615, 11, 0, 196622, 9, 0, 196623, 11, 0, 196664, 17, 0, 196665, 18, 0, 196666, 18, 0, 196667, 18, 0, 196668, 18, 0, 196669, 18, 0, 196670, 18, 0, 196671, 18, 0, 196672, 18, 0, 196673, 19, 0, 196704, 9, 0, 196705, 11, 0, 196712, 9, 0, 196713, 11, 0, 262150, 9, 0, 262151, 11, 0, 262158, 9, 0, 262159, 11, 0, 262240, 9, 0, 262241, 11, 0, 262248, 9, 0, 262249, 11, 0, 327686, 9, 0, 327687, 11, 0, 327694, 9, 0, 327695, 11, 0, 327727, 35, 0, 327730, 35, 0, 327776, 9, 0, 327777, 11, 0, 327784, 9, 0, 327785, 11, 0, 393222, 9, 0, 393223, 11, 0, 393230, 9, 0, 393231, 11, 0, 393238, 1, 0, 393239, 3, 0, 393262, 1, 0, 393263, 2, 0, 393264, 2, 0, 393265, 2, 0, 393266, 2, 0, 393267, 3, 0, 393312, 9, 0, 393313, 11, 0, 393320, 9, 0, 393322, 2, 0, 393323, 3, 0, 458758, 9, 0, 458759, 11, 0, 458766, 9, 0, 458767, 11, 0, 458774, 9, 0, 458775, 11, 0, 458798, 17, 0, 458799, 18, 0, 458800, 18, 0, 458801, 18, 0, 458802, 18, 0, 458803, 19, 0, 458848, 17, 0, 458849, 19, 0, 458856, 9, 0, 458859, 11, 0, 524294, 9, 0, 524295, 11, 0, 524302, 9, 0, 524303, 11, 0, 524308, 1, 0, 524309, 2, 0, 524310, 21, 0, 524311, 20, 0, 524312, 2, 0, 524313, 3, 0, 524392, 9, 0, 524395, 20, 0, 524396, 2, 0, 524397, 3, 0, 524401, 30, 0, 589830, 17, 0, 589831, 19, 0, 589838, 17, 0, 589839, 19, 0, 589844, 9, 0, 589849, 11, 0, 589863, 35, 0, 589928, 9, 0, 589933, 11, 0, 655378, 1, 0, 655379, 2, 0, 655380, 21, 0, 655385, 20, 0, 655386, 2, 0, 655387, 3, 0, 655398, 1, 0, 655399, 2, 0, 655400, 2, 0, 655401, 3, 0, 655464, 9, 0, 655469, 20, 0, 655470, 2, 0, 655471, 2, 0, 655472, 2, 0, 655473, 3, 0, 720914, 9, 0, 720923, 11, 0, 720934, 17, 0, 720935, 18, 0, 720936, 18, 0, 720937, 19, 0, 721000, 9, 0, 721009, 11, 0, 721016, 34, 0, 786448, 1, 0, 786449, 2, 0, 786450, 21, 0, 786459, 20, 0, 786460, 2, 0, 786461, 3, 0, 786536, 9, 0, 786545, 20, 0, 786546, 2, 0, 786547, 2, 0, 786548, 2, 0, 786549, 2, 0, 786550, 2, 0, 786551, 2, 0, 786552, 2, 0, 786553, 2, 0, 786554, 2, 0, 786555, 2, 0, 786556, 2, 0, 786557, 2, 0, 786558, 2, 0, 786559, 3, 0, 851969, 28, 0, 851984, 9, 0, 851997, 11, 0, 852012, 39, 0, 852013, 22, 0, 852014, 23, 0, 852015, 23, 0, 852016, 23, 0, 852017, 23, 0, 852018, 23, 0, 852019, 23, 0, 852020, 23, 0, 852021, 23, 0, 852022, 23, 0, 852023, 23, 0, 852024, 23, 0, 852025, 24, 0, 852072, 9, 0, 852095, 11, 0, 852102, 39, 0, 917504, 1, 0, 917505, 2, 0, 917506, 2, 0, 917507, 2, 0, 917508, 2, 0, 917509, 2, 0, 917510, 2, 0, 917511, 2, 0, 917512, 2, 0, 917513, 2, 0, 917514, 2, 0, 917515, 2, 0, 917516, 2, 0, 917517, 2, 0, 917518, 2, 0, 917519, 2, 0, 917520, 21, 0, 917533, 20, 0, 917534, 2, 0, 917535, 2, 0, 917536, 2, 0, 917537, 2, 0, 917538, 2, 0, 917539, 2, 0, 917540, 2, 0, 917541, 2, 0, 917542, 2, 0, 917543, 2, 0, 917544, 2, 0, 917545, 2, 0, 917546, 2, 0, 917547, 2, 0, 917548, 2, 0, 917549, 3, 0, 917550, 31, 0, 917551, 31, 0, 917552, 31, 0, 917553, 31, 0, 917554, 31, 0, 917555, 31, 0, 917556, 31, 0, 917557, 31, 0, 917558, 31, 0, 917559, 31, 0, 917560, 31, 0, 917561, 1, 0, 917562, 2, 0, 917563, 2, 0, 917564, 2, 0, 917565, 2, 0, 917566, 2, 0, 917567, 2, 0, 917568, 2, 0, 917569, 2, 0, 917570, 2, 0, 917571, 2, 0, 917572, 2, 0, 917573, 2, 0, 917574, 2, 0, 917575, 6, 0, 917588, 1, 0, 917589, 2, 0, 917590, 2, 0, 917591, 2, 0, 917592, 2, 0, 917593, 2, 0, 917594, 2, 0, 917595, 2, 0, 917596, 2, 0, 917597, 2, 0, 917598, 2, 0, 917599, 2, 0, 917600, 2, 0, 917601, 2, 0, 917602, 2, 0, 917603, 2, 0, 917604, 2, 0, 917605, 2, 0, 917606, 2, 0, 917607, 2, 0, 917608, 21, 0, 917631, 20, 0, 917632, 2, 0, 917633, 2, 0, 917634, 2, 0, 917635, 2, 0, 917636, 2, 0, 917637, 2, 0, 917638, 2, 0, 917639, 3, 0, 983040, 9, 0, 983085, 11, 0, 983097, 9, 0, 983099, 12, 0, 983100, 18, 0, 983101, 18, 0, 983102, 18, 0, 983103, 18, 0, 983104, 18, 0, 983105, 18, 0, 983106, 18, 0, 983107, 18, 0, 983108, 18, 0, 983109, 18, 0, 983110, 18, 0, 983111, 18, 0, 983124, 17, 0, 983125, 18, 0, 983126, 18, 0, 983127, 18, 0, 983128, 18, 0, 983129, 18, 0, 983130, 18, 0, 983131, 18, 0, 983132, 18, 0, 983133, 18, 0, 983134, 18, 0, 983135, 18, 0, 983136, 18, 0, 983137, 18, 0, 983138, 18, 0, 983139, 18, 0, 983140, 18, 0, 983141, 18, 0, 983142, 18, 0, 983143, 18, 0, 983144, 18, 0, 983145, 18, 0, 983146, 18, 0, 983147, 18, 0, 983148, 18, 0, 983149, 18, 0, 983150, 18, 0, 983151, 18, 0, 983152, 18, 0, 983153, 18, 0, 983154, 18, 0, 983155, 18, 0, 983156, 18, 0, 983157, 18, 0, 983158, 18, 0, 983159, 18, 0, 983160, 18, 0, 983161, 18, 0, 983162, 18, 0, 983163, 18, 0, 983164, 18, 0, 983165, 18, 0, 983166, 18, 0, 983167, 18, 0, 983168, 18, 0, 983169, 18, 0, 983170, 18, 0, 983171, 18, 0, 983172, 18, 0, 983173, 18, 0, 983174, 18, 0, 983175, 19, 0, 1048576, 17, 0, 1048577, 18, 0, 1048578, 18, 0, 1048579, 18, 0, 1048580, 18, 0, 1048581, 18, 0, 1048582, 18, 0, 1048583, 18, 0, 1048584, 18, 0, 1048585, 18, 0, 1048586, 18, 0, 1048587, 18, 0, 1048588, 18, 0, 1048589, 18, 0, 1048590, 18, 0, 1048591, 18, 0, 1048592, 18, 0, 1048593, 18, 0, 1048594, 18, 0, 1048595, 18, 0, 1048596, 18, 0, 1048597, 18, 0, 1048598, 18, 0, 1048599, 18, 0, 1048600, 18, 0, 1048601, 18, 0, 1048602, 18, 0, 1048603, 18, 0, 1048604, 18, 0, 1048605, 18, 0, 1048606, 18, 0, 1048607, 18, 0, 1048608, 18, 0, 1048609, 18, 0, 1048610, 18, 0, 1048611, 18, 0, 1048612, 18, 0, 1048613, 18, 0, 1048614, 18, 0, 1048615, 18, 0, 1048616, 18, 0, 1048617, 18, 0, 1048618, 18, 0, 1048619, 13, 0, 1048621, 11, 0, 1048633, 9, 0, 1048635, 11, 0, 1048636, 25, 0, 1048639, 25, 0, 1048641, 33, 0, 1048644, 25, 0, 1048646, 33, 0, 1048661, 25, 0, 1048663, 25, 0, 1048666, 25, 0, 1048668, 33, 0, 1048670, 25, 0, 1048673, 25, 0, 1048675, 33, 0, 1114155, 9, 0, 1114157, 11, 0, 1114169, 9, 0, 1114171, 11, 0, 1114172, 25, 0, 1114175, 25, 0, 1114180, 25, 0, 1114197, 25, 0, 1114199, 25, 0, 1114202, 25, 0, 1114206, 25, 0, 1114209, 25, 0, 1179691, 9, 0, 1179693, 11, 0, 1179705, 9, 0, 1179707, 11, 0, 1179711, 33, 0, 1179716, 25, 0, 1179733, 25, 0, 1179735, 33, 0, 1179738, 25, 0, 1179745, 25, 0, 1245227, 9, 0, 1245229, 11, 0, 1245230, 14, 0, 1245231, 15, 0, 1245232, 14, 0, 1245233, 16, 0, 1245234, 16, 0, 1245235, 15, 0, 1245236, 16, 0, 1245237, 14, 0, 1245238, 15, 0, 1245239, 16, 0, 1245240, 14, 0, 1245241, 9, 0, 1245243, 11, 0, 1245252, 25, 0, 1245258, 49, 0, 1245269, 25, 0, 1245274, 25, 0, 1310763, 9, 0, 1310765, 20, 0, 1310766, 2, 0, 1310767, 2, 0, 1310768, 2, 0, 1310769, 2, 0, 1310770, 2, 0, 1310771, 2, 0, 1310772, 2, 0, 1310773, 2, 0, 1310774, 2, 0, 1310775, 2, 0, 1310776, 2, 0, 1310777, 21, 0, 1310779, 11, 0, 1310788, 25, 0, 1310792, 1, 0, 1310793, 2, 0, 1310794, 2, 0, 1310795, 3, 0, 1310810, 25, 0, 1376299, 9, 0, 1376315, 11, 0, 1376328, 17, 0, 1376329, 18, 0, 1376330, 18, 0, 1376331, 19, 0, 1376346, 33, 0, 1441835, 17, 0, 1441836, 18, 0, 1441837, 18, 0, 1441838, 18, 0, 1441839, 18, 0, 1441840, 18, 0, 1441841, 18, 0, 1441842, 18, 0, 1441843, 18, 0, 1441844, 18, 0, 1441845, 18, 0, 1441846, 18, 0, 1441847, 18, 0, 1441848, 18, 0, 1441849, 18, 0, 1441850, 18, 0, 1441851, 19, 0, 3211300, 32, 0, 3276836, 1, 0, 3276837, 3, 0, 3342372, 17, 0, 3342373, 19, 0, 3735573, 27, 0, 3801108, 1, 0, 3801109, 2, 0, 3801110, 2, 0, 3801111, 2, 0, 3801112, 2, 0, 3801113, 3, 0, 3866644, 17, 0, 3866645, 18, 0, 3866646, 18, 0, 3866647, 18, 0, 3866648, 18, 0, 3866649, 19, 0 )
_sections_unfolded = [ "Cell" ]


